<svg width="106" height="106" viewBox="0 0 106 106" fill="none" xmlns="http://www.w3.org/2000/svg">
<circle cx="52.7227" cy="53.3889" r="52.5" transform="rotate(-180 52.7227 53.3889)" fill="#1F8197"/>
</svg>
