<svg width="22" height="22" viewBox="0 0 22 22" fill="none" xmlns="http://www.w3.org/2000/svg">
<path fill-rule="evenodd" clip-rule="evenodd" d="M2.7206e-07 1.83776C2.7206e-07 1.35029 0.193646 0.882788 0.538338 0.538096C0.88303 0.193404 1.35053 -0.00024169 1.838 -0.00024169H20.16C20.4016 -0.000636242 20.6409 0.0466212 20.8641 0.138825C21.0874 0.231029 21.2903 0.366368 21.4612 0.537095C21.6322 0.707821 21.7677 0.910582 21.8602 1.13377C21.9526 1.35695 22.0001 1.59618 22 1.83776V20.1598C22.0003 20.4014 21.9529 20.6407 21.8606 20.864C21.7683 21.0873 21.6328 21.2902 21.462 21.4611C21.2912 21.632 21.0884 21.7675 20.8651 21.8599C20.6419 21.9524 20.4026 21.9999 20.161 21.9998H1.838C1.59655 21.9998 1.35746 21.9522 1.1344 21.8598C0.911335 21.7673 0.708671 21.6318 0.537984 21.4611C0.367297 21.2903 0.231932 21.0875 0.139623 20.8644C0.0473133 20.6413 -0.000131096 20.4022 2.7206e-07 20.1608V1.83776ZM8.708 8.38776H11.687V9.88376C12.117 9.02376 13.217 8.24976 14.87 8.24976C18.039 8.24976 18.79 9.96276 18.79 13.1058V18.9278H15.583V13.8218C15.583 12.0318 15.153 11.0218 14.061 11.0218C12.546 11.0218 11.916 12.1108 11.916 13.8218V18.9278H8.708V8.38776ZM3.208 18.7908H6.416V8.24976H3.208V18.7898V18.7908ZM6.875 4.81176C6.88105 5.08643 6.83217 5.35955 6.73124 5.61507C6.63031 5.8706 6.47935 6.10339 6.28723 6.29979C6.09511 6.49619 5.8657 6.65223 5.61246 6.75876C5.35921 6.8653 5.08724 6.92018 4.8125 6.92018C4.53776 6.92018 4.26579 6.8653 4.01255 6.75876C3.7593 6.65223 3.52989 6.49619 3.33777 6.29979C3.14565 6.10339 2.99469 5.8706 2.89376 5.61507C2.79283 5.35955 2.74395 5.08643 2.75 4.81176C2.76187 4.27261 2.98439 3.75955 3.36989 3.38244C3.75539 3.00534 4.27322 2.79418 4.8125 2.79418C5.35178 2.79418 5.86961 3.00534 6.25512 3.38244C6.64062 3.75955 6.86313 4.27261 6.875 4.81176Z" fill="white"/>
</svg>
