<svg width="83" height="27" viewBox="0 0 83 27" fill="none" xmlns="http://www.w3.org/2000/svg">
<path d="M15.7407 5.65967C11.297 5.65967 8.30957 8.21928 8.30957 13.2559V16.326C8.76809 16.1267 9.25892 16.0123 9.75827 15.9882C10.2652 15.9678 10.7682 16.0845 11.2145 16.326V13.2559C11.2145 10.0133 13.0084 8.30185 15.7182 8.30185C18.4279 8.30185 20.2219 10.0133 20.2219 13.2559V21.1074H23.1268V13.2559C23.1268 8.21928 20.1243 5.65967 15.7032 5.65967" fill="white"/>
<path d="M24.7031 13.5937C24.7031 8.98491 28.0284 5.65967 32.8098 5.65967C37.5913 5.65967 40.8339 9.00743 40.8339 13.5937V14.6221H27.7732C27.937 15.8229 28.5453 16.9186 29.4778 17.6927C30.4104 18.4668 31.5993 18.863 32.8098 18.803C34.7764 18.803 36.1426 18.21 36.9983 16.9265H40.1809C38.9874 19.7413 36.2552 21.5353 32.7573 21.5353C28.0584 21.5353 24.7331 18.21 24.7331 13.5937H24.7031ZM37.8765 12.0925C37.6106 10.9754 36.9604 9.98741 36.0397 9.30131C35.1189 8.61522 33.9863 8.27471 32.8398 8.33938C31.7042 8.27693 30.5834 8.62005 29.6773 9.3075C28.7712 9.99495 28.1389 10.982 27.8933 12.0925H37.8765Z" fill="white"/>
<path d="M42.4336 13.5937C42.4336 9.00744 45.7889 5.65968 50.5703 5.65968C51.6319 5.61764 52.6909 5.79273 53.6824 6.17424C54.674 6.55575 55.5773 7.13564 56.3369 7.87841C57.0965 8.62117 57.6965 9.51117 58.1002 10.4939C58.5039 11.4767 58.7027 12.5315 58.6845 13.5937C58.6845 18.21 55.3517 21.5353 50.5703 21.5353C45.7889 21.5353 42.4336 18.21 42.4336 13.5937ZM55.6595 13.5937C55.6999 12.9001 55.593 12.2057 55.3458 11.5563C55.0987 10.9069 54.7169 10.3172 54.2256 9.82584C53.7343 9.33452 53.1445 8.95274 52.4951 8.70561C51.8457 8.45847 51.1514 8.35157 50.4577 8.39193C49.7669 8.36452 49.0779 8.48026 48.434 8.73187C47.7901 8.98348 47.2051 9.36554 46.7159 9.85404C46.2267 10.3425 45.8438 10.9269 45.5913 11.5705C45.3387 12.2141 45.222 12.9029 45.2484 13.5937C45.2081 14.2884 45.3152 14.9837 45.5627 15.634C45.8102 16.2843 46.1925 16.8749 46.6845 17.3669C47.1766 17.8589 47.7671 18.2412 48.4174 18.4888C49.0677 18.7363 49.7631 18.8434 50.4577 18.803C53.6178 18.8931 55.6595 16.6713 55.6595 13.5937Z" fill="white"/>
<path d="M75.2432 24.1851H75.5884C77.465 24.1851 78.1481 23.3294 78.1481 21.1826V6.68066H81.053V21.0175C81.053 24.7706 79.5968 26.6546 75.8437 26.6546H75.2432V24.1851Z" fill="white"/>
<path d="M73.7943 22.5637H70.8894V18.9757H63.5484C62.873 19.0055 62.2028 18.8455 61.6138 18.5138C61.0247 18.1822 60.5404 17.6921 60.2156 17.0992C59.9473 16.5499 59.8449 15.9343 59.9209 15.3278C59.9969 14.7212 60.248 14.15 60.6435 13.6838L67.2039 5.05923C67.6566 4.42665 68.302 3.95759 69.0434 3.72217C69.7848 3.48675 70.5825 3.49762 71.3173 3.75315C72.0399 3.98477 72.6697 4.44087 73.1152 5.05511C73.5607 5.66935 73.7986 6.4097 73.7943 7.16847V16.4161H75.4982V18.9757H73.7943V22.5637ZM63.038 15.3052C62.9278 15.4205 62.866 15.5736 62.8653 15.733C62.8653 15.9321 62.9444 16.123 63.0852 16.2638C63.2259 16.4046 63.4169 16.4837 63.6159 16.4837H70.8744V7.19099C70.8744 6.68057 70.5366 6.50793 70.364 6.50793H70.1088C69.9883 6.51302 69.8709 6.54706 69.7663 6.60716C69.6618 6.66726 69.5733 6.75166 69.5083 6.85321L63.038 15.3052Z" fill="white"/>
<path d="M79.5962 0C79.1063 0 78.6274 0.145276 78.22 0.417457C77.8127 0.689638 77.4952 1.0765 77.3077 1.52912C77.1202 1.98174 77.0712 2.47979 77.1667 2.96029C77.2623 3.44079 77.4982 3.88216 77.8446 4.22858C78.1911 4.575 78.6324 4.81091 79.1129 4.90649C79.5934 5.00207 80.0915 4.95301 80.5441 4.76553C80.9967 4.57805 81.3836 4.26056 81.6558 3.85321C81.928 3.44587 82.0732 2.96696 82.0732 2.47704C82.0732 1.82009 81.8123 1.19004 81.3477 0.725509C80.8832 0.260973 80.2531 0 79.5962 0" fill="white"/>
<path d="M9.59348 17.4371C9.05989 17.4094 8.53681 17.5927 8.13728 17.9475L5.40503 16.161C5.47854 15.9412 5.50911 15.7093 5.4951 15.478C5.49659 14.9877 5.35258 14.5081 5.0813 14.0997C4.81002 13.6914 4.42368 13.3728 3.9712 13.1841C3.51871 12.9955 3.02042 12.9454 2.53943 13.0401C2.05844 13.1348 1.61637 13.3701 1.2692 13.7163C0.922025 14.0624 0.685363 14.5037 0.589176 14.9844C0.492989 15.4651 0.541602 15.9636 0.728861 16.4166C0.91612 16.8697 1.2336 17.257 1.64111 17.5295C2.04862 17.802 2.52783 17.9475 3.01806 17.9475C3.28131 17.9627 3.54496 17.9254 3.79366 17.8378C4.04237 17.7501 4.27117 17.6139 4.46675 17.4371L7.19901 19.3136C7.13141 19.5347 7.10345 19.7659 7.11644 19.9967C7.10264 20.2275 7.13062 20.4589 7.19901 20.6797L4.46675 22.5638C4.05745 22.2303 3.54603 22.0475 3.01806 22.0459C2.52815 22.0459 2.04924 22.1912 1.64189 22.4633C1.23454 22.7355 0.917052 23.1224 0.72957 23.575C0.542089 24.0276 0.493035 24.5257 0.588612 25.0062C0.68419 25.4867 0.920105 25.928 1.26653 26.2745C1.61295 26.6209 2.05431 26.8568 2.53481 26.9524C3.01531 27.0479 3.51336 26.9989 3.96598 26.8114C4.4186 26.6239 4.80546 26.3064 5.07765 25.8991C5.34983 25.4917 5.4951 25.0128 5.4951 24.5229C5.50968 24.2915 5.47909 24.0595 5.40503 23.8399L8.13728 21.9633C8.5493 22.2963 9.06375 22.4766 9.59348 22.4737C9.91842 22.4737 10.2402 22.4096 10.5403 22.285C10.8404 22.1605 11.113 21.9779 11.3424 21.7478C11.5718 21.5177 11.7535 21.2445 11.8772 20.944C12.0009 20.6436 12.064 20.3216 12.063 19.9967C12.0672 19.332 11.8112 18.6921 11.3497 18.2138C10.8882 17.7354 10.2579 17.4567 9.59348 17.4371Z" fill="white"/>
</svg>
